/home/ruan/projects/healthtrack/src/main/java/com/healthtrack/entity/PhysicalActivity.java
/home/ruan/projects/healthtrack/src/main/java/com/healthtrack/Application.java
/home/ruan/projects/healthtrack/src/main/java/com/healthtrack/service/PhysicalActivityService.java
/home/ruan/projects/healthtrack/src/main/java/com/healthtrack/repository/UserRepository.java
/home/ruan/projects/healthtrack/src/main/java/com/healthtrack/entity/User.java
/home/ruan/projects/healthtrack/src/main/java/com/healthtrack/controller/SignInController.java
/home/ruan/projects/healthtrack/src/main/java/com/healthtrack/service/SignUpService.java
/home/ruan/projects/healthtrack/src/main/java/com/healthtrack/controller/SignUpController.java
/home/ruan/projects/healthtrack/src/main/java/com/healthtrack/controller/HomeController.java
/home/ruan/projects/healthtrack/src/main/java/com/healthtrack/repository/PhysicalActivityRepository.java
/home/ruan/projects/healthtrack/src/main/java/com/healthtrack/service/SignInService.java
